{
  "project_info": {
    "project_number": "198248530659",
    "firebase_url": "https://gokpr-24ca7.firebaseio.com",
    "project_id": "gokpr-24ca7",
    "storage_bucket": "gokpr-24ca7.appspot.com"
  },
  "client": [
    {
      "client_info": {
        "mobilesdk_app_id": "1:198248530659:android:369c2ad851ffa518",
        "android_client_info": {
          "package_name": "com.app.dots.gokpr"
        }
      },
      "oauth_client": [
        {
          "client_id": "198248530659-6rro0n9bgvpv02mg5trsf7imbs7at6ui.apps.googleusercontent.com",
          "client_type": 1,
          "android_info": {
            "package_name": "com.app.dots.gokpr",
            "certificate_hash": "a04ca3fb9639a4f86bb293ebefb171d68fb32ab6"
          }
        },
        {
          "client_id": "198248530659-90iv6rpnc8bo7of84oui1ahcjs2jehv1.apps.googleusercontent.com",
          "client_type": 3
        }
      ],
      "api_key": [
        {
          "current_key": "AIzaSyCfIbk7lDa_jOKVJBjO0DDuTiXBzr-UFK4"
        }
      ],
      "services": {
        "appinvite_service": {
          "other_platform_oauth_client": [
            {
              "client_id": "198248530659-90iv6rpnc8bo7of84oui1ahcjs2jehv1.apps.googleusercontent.com",
              "client_type": 3
            }
          ]
        }
      }
    }
  ],
  "configuration_version": "1"
}